<svg width="24" height="21" viewBox="0 0 24 21" fill="none" xmlns="http://www.w3.org/2000/svg">
<path d="M17.604 13.4695L19.1798 6.4495C19.2935 5.94265 18.913 5.45999 18.3997 5.45999H5.30693L5.0014 3.94765C4.92527 3.5707 4.59767 3.29999 4.21763 3.29999H0.8C0.358167 3.29999 0 3.66263 0 4.10999V4.64999C0 5.09734 0.358167 5.45999 0.8 5.45999H3.12943L5.47103 17.0509C4.91083 17.3771 4.53333 17.9887 4.53333 18.69C4.53333 19.7338 5.36907 20.58 6.4 20.58C7.43093 20.58 8.26667 19.7338 8.26667 18.69C8.26667 18.161 8.05177 17.6831 7.70587 17.34H14.6941C14.3482 17.6831 14.1333 18.161 14.1333 18.69C14.1333 19.7338 14.9691 20.58 16 20.58C17.0309 20.58 17.8667 19.7338 17.8667 18.69C17.8667 17.9417 17.4371 17.295 16.814 16.9888L16.9979 16.1695C17.1117 15.6626 16.7312 15.18 16.2178 15.18H7.27057L7.0524 14.1H16.8239C17.1974 14.1 17.5212 13.8383 17.604 13.4695Z" fill="#FFC107"/>
<circle cx="19.1994" cy="5.21998" r="4.8" fill="#FFC107"/>
<path fill-rule="evenodd" clip-rule="evenodd" d="M18.2006 6.21998L18.2006 8.09997H20.2006V6.21998H22.0803V4.21998H20.2006V2.33997H18.2006L18.2006 4.21998H16.3203V6.21998H18.2006Z" fill="#101E48"/>
</svg>
