<svg width="4" height="10" viewBox="0 0 4 10" fill="none" xmlns="http://www.w3.org/2000/svg">
<path d="M1.97506 9.112C1.6444 9.112 1.36706 9 1.14306 8.776C0.919063 8.552 0.807063 8.27467 0.807063 7.944C0.807063 7.61333 0.919063 7.336 1.14306 7.112C1.36706 6.888 1.6444 6.776 1.97506 6.776C2.29506 6.776 2.56706 6.888 2.79106 7.112C3.01506 7.336 3.12706 7.61333 3.12706 7.944C3.12706 8.27467 3.01506 8.552 2.79106 8.776C2.56706 9 2.29506 9.112 1.97506 9.112ZM1.97506 2.392C1.6444 2.392 1.36706 2.28 1.14306 2.056C0.919063 1.832 0.807063 1.55467 0.807063 1.224C0.807063 0.893333 0.919063 0.616 1.14306 0.391999C1.36706 0.168 1.6444 0.0559998 1.97506 0.0559998C2.29506 0.0559998 2.56706 0.168 2.79106 0.391999C3.01506 0.616 3.12706 0.893333 3.12706 1.224C3.12706 1.55467 3.01506 1.832 2.79106 2.056C2.56706 2.28 2.29506 2.392 1.97506 2.392Z" fill="#333333"/>
</svg>
