<svg width="22" height="22" viewBox="0 0 22 22" fill="none" xmlns="http://www.w3.org/2000/svg">
<path d="M21.8485 20.1471L16.6324 14.9309C16.5336 14.8321 16.4047 14.7805 16.2672 14.7805H15.7C17.0535 13.2122 17.8741 11.1713 17.8741 8.93706C17.8741 4.0002 13.8739 0 8.93706 0C4.0002 0 0 4.0002 0 8.93706C0 13.8739 4.0002 17.8741 8.93706 17.8741C11.1713 17.8741 13.2122 17.0535 14.7805 15.7V16.2672C14.7805 16.4047 14.8364 16.5336 14.9309 16.6324L20.1471 21.8485C20.349 22.0505 20.6756 22.0505 20.8775 21.8485L21.8485 20.8775C22.0505 20.6756 22.0505 20.349 21.8485 20.1471ZM8.93706 15.8117C5.13881 15.8117 2.0624 12.7353 2.0624 8.93706C2.0624 5.13881 5.13881 2.0624 8.93706 2.0624C12.7353 2.0624 15.8117 5.13881 15.8117 8.93706C15.8117 12.7353 12.7353 15.8117 8.93706 15.8117Z" fill="#828282"/>
</svg>
