<svg width="12" height="6" viewBox="0 0 12 6" fill="none" xmlns="http://www.w3.org/2000/svg">
<path d="M5.64645 5.64657L0.853553 0.853675C0.538571 0.538693 0.761654 0.00012207 1.20711 0.00012207H10.7929C11.2383 0.00012207 11.4614 0.538693 11.1464 0.853676L6.35355 5.64657C6.15829 5.84183 5.84171 5.84183 5.64645 5.64657Z" fill="#101E48"/>
</svg>
